digraph G {
"os1_sensor" -> "os1_imu"[label="Broadcaster: /os1_cloud_node\nAverage rate: 10000.000 Hz\nMost recent transform: 0.000 ( 1563271821.463 sec old)\nBuffer length: 0.000 sec\n"];
"electronics_center" -> "os1_sensor"[label="Broadcaster: /tf_ouster\nAverage rate: 33.211 Hz\nMost recent transform: 1563271821.463 ( -0.001 sec old)\nBuffer length: 4.848 sec\n"];
"os1_sensor" -> "os1_lidar"[label="Broadcaster: /os1_cloud_node\nAverage rate: 10000.000 Hz\nMost recent transform: 0.000 ( 1563271821.463 sec old)\nBuffer length: 0.000 sec\n"];
"electronics_center" -> "front_link"[label="Broadcaster: /tf_front\nAverage rate: 33.241 Hz\nMost recent transform: 1563271821.490 ( -0.027 sec old)\nBuffer length: 4.934 sec\n"];
"electronics_center" -> "siar_arm"[label="Broadcaster: /tf_arm\nAverage rate: 33.235 Hz\nMost recent transform: 1563271821.465 ( -0.002 sec old)\nBuffer length: 4.904 sec\n"];
"electronics_center" -> "back_link"[label="Broadcaster: /tf_back\nAverage rate: 33.319 Hz\nMost recent transform: 1563271821.470 ( -0.008 sec old)\nBuffer length: 4.892 sec\n"];
"front_depth_frame" -> "front_depth_optical_frame"[label="Broadcaster: /front_base_link2\nAverage rate: 10.185 Hz\nMost recent transform: 1563271821.484 ( -0.022 sec old)\nBuffer length: 4.811 sec\n"];
"front_link" -> "front_depth_frame"[label="Broadcaster: /front_base_link\nAverage rate: 10.169 Hz\nMost recent transform: 1563271821.556 ( -0.093 sec old)\nBuffer length: 4.818 sec\n"];
"front_link" -> "front_rgb_frame"[label="Broadcaster: /front_base_link1\nAverage rate: 10.163 Hz\nMost recent transform: 1563271821.501 ( -0.038 sec old)\nBuffer length: 4.821 sec\n"];
"back_depth_frame" -> "back_depth_optical_frame"[label="Broadcaster: /back_base_link2\nAverage rate: 10.169 Hz\nMost recent transform: 1563271821.549 ( -0.087 sec old)\nBuffer length: 4.818 sec\n"];
"back_link" -> "back_depth_frame"[label="Broadcaster: /back_base_link\nAverage rate: 10.170 Hz\nMost recent transform: 1563271821.468 ( -0.005 sec old)\nBuffer length: 4.720 sec\n"];
"back_rgb_frame" -> "back_rgb_optical_frame"[label="Broadcaster: /back_base_link3\nAverage rate: 10.181 Hz\nMost recent transform: 1563271821.468 ( -0.005 sec old)\nBuffer length: 4.714 sec\n"];
"back_link" -> "back_rgb_frame"[label="Broadcaster: /back_base_link1\nAverage rate: 10.187 Hz\nMost recent transform: 1563271821.494 ( -0.031 sec old)\nBuffer length: 4.712 sec\n"];
"front_rgb_frame" -> "front_rgb_optical_frame"[label="Broadcaster: /front_base_link3\nAverage rate: 10.177 Hz\nMost recent transform: 1563271821.476 ( -0.014 sec old)\nBuffer length: 4.716 sec\n"];
edge [style=invis];
 subgraph cluster_legend { style=bold; color=black; label ="view_frames Result";
"Recorded at time: 1563271821.463"[ shape=plaintext ] ;
 }->"electronics_center";
}